…
    ## Rows: 28 Columns: 4
    ## -- Column specification --------------------------------------------------------
    ## Delimiter: ","
    ## chr (3): Country, Alpha-2, Alpha-3
    ## dbl (1): Code
    ## 
    ## i Use `spec()` to retrieve the full column specification for this data.
    ## i Specify the column types or set `show_col_types = FALSE` to quiet this message.

``` r
erasmus
```

    ## # A tibble: 164,635 x 24
    ##    project_reference        academic_year mobility_start_month mobility_end_mon~
    ##    <chr>                    <chr>         <chr>                <chr>            
    ##  1 2014-1-AT02-KA347-000139 2014-2015     2014-11              2014-11          
    ##  2 2014-1-AT02-KA347-000139 2014-2015     2014-11              2014-11          
    ##  3 2014-1-AT02-KA347-000139 2014-2015     2014-11              2014-11          
    ##  4 2014-1-AT02-KA347-000139 2014-2015     2014-11              2014-11          
    ##  5 2014-1-AT02-KA347-000139 2014-2015     2014-11              2014-11          
    ##  6 2014-1-AT02-KA347-000139 2014-2015     2014-12              2014-12          
    ##  7 2014-1-AT02-KA347-000139 2014-2015     2014-12              2014-12          
    ##  8 2014-1-AT02-KA347-000139 2014-2015     2014-12              2014-12          
    ##  9 2014-1-AT02-KA347-000139 2014-2015     2014-12              2014-12          
    ## 10 2014-1-AT02-KA347-000139 2014-2015     2014-12              2014-12          
    ## # ... with 164,625 more rows, and 20 more variables: mobility_duration <dbl>,
    ## #   activity_mob <chr>, field_of_education <chr>,
    ## #   participant_nationality <chr>, education_level <chr>,
    ## #   participant_gender <chr>, participant_profile <chr>, special_needs <chr>,
    ## #   fewer_opportunities <chr>, group_leader <chr>, participant_age <dbl>,
    ## #   sending_country_code <chr>, sending_city <chr>, sending_organization <chr>,
    ## #   sending_organisation_erasmus_code <chr>, receiving_country_code <chr>, ...
…
    ## # A tibble: 1 x 2
    ##   participant_profile      n
    ##   <chr>                <int>
    ## 1 Learner             164635

There is actually a surprising amount of distribution here.

``` r
erasmus %>%
  count(mobility_duration)
```

    ## # A tibble: 48 x 2
    ##    mobility_duration     n
    ##                <dbl> <int>
    ##  1                 1 88142
    ##  2                 2 20942
    ##  3                 3 25343
    ##  4                 4 10547
    ##  5                 5  8177
    ##  6                 6  4364
    ##  7                 7  3761
    ##  8                 8  1763
    ##  9                 9   433
    ## 10                10   608
    ## # ... with 38 more rows
…
