…
``` r
paste0("Max Data Submitted: ", max(paygap$date_submitted))
```

    ## [1] "Max Data Submitted: 2022-06-27 08:31:39"

Are there any employers who are represented more than once? If there are
many who show up more than once, we may need to aggregate.

``` r
paygap %>%
  count(current_name, sort = TRUE)
```

    ## # A tibble: 12,745 x 2
    ##    current_name                           n
    ##    <chr>                              <int>
    ##  1 ABACUS EMPLOYMENT SERVICES LIMITED     6
    ##  2 Allerdale Borough Council              6
    ##  3 ARRK EUROPE LIMITED                    6
    ##  4 Bank of England                        6
    ##  5 BE MODERN LIMITED                      6
    ##  6 BIRTENSHAW                             6
    ##  7 BLACK SWAN INTERNATIONAL LIMITED       6
    ##  8 BOWDRAPER LIMITED                      6
    ##  9 BRANCASTER CARE HOMES LIMITED          6
    ## 10 BRISTOL LABORATORIES LIMITED           6
    ## # ... with 12,735 more rows
…
