…
## What propery types do most rescues occur at?

``` r
count(ar, property_type) %>%
  arrange(desc(n))
```

    ## # A tibble: 179 x 2
    ##    property_type                                         n
    ##    <chr>                                             <int>
    ##  1 House - single occupancy                           1867
    ##  2 Purpose Built Flats/Maisonettes - Up to 3 storeys   599
    ##  3 Purpose Built Flats/Maisonettes - 4 to 9 storeys    587
    ##  4 Tree scrub                                          321
    ##  5 Animal harm outdoors                                280
    ##  6 Converted Flat/Maisonettes - 3 or more storeys      254
    ##  7 Car                                                 241
    ##  8 Domestic garden (vegetation not equipment)          221
    ##  9 Converted Flat/Maisonette - Up to 2 storeys         207
    ## 10 Park                                                180
    ## # ... with 169 more rows
…
