…
``` r
# data
spiders <- readr::read_csv('https://raw.githubusercontent.com/rfordatascience/tidytuesday/master/data/2021/2021-12-07/spiders.csv')
spiders
```

    ## # A tibble: 49,785 x 10
    ##    speciesId species_lsid      family   genus  species  subspecies author   year
    ##        <dbl> <chr>             <chr>    <chr>  <chr>    <chr>      <chr>   <dbl>
    ##  1         1 urn:lsid:nmbe.ch~ Actinop~ Actin~ caraiba  <NA>       Simon    1889
    ##  2         2 urn:lsid:nmbe.ch~ Actinop~ Actin~ crassip~ <NA>       Keyser~  1891
    ##  3         3 urn:lsid:nmbe.ch~ Actinop~ Actin~ cucutae~ <NA>       Mello-~  1941
    ##  4         4 urn:lsid:nmbe.ch~ Actinop~ Actin~ dubioma~ <NA>       Mello-~  1923
    ##  5         5 urn:lsid:nmbe.ch~ Actinop~ Actin~ echinus  <NA>       Mello-~  1949
    ##  6         6 urn:lsid:nmbe.ch~ Actinop~ Actin~ fractus  <NA>       Mello-~  1920
    ##  7         7 urn:lsid:nmbe.ch~ Actinop~ Actin~ harti    <NA>       Pocock   1895
    ##  8         8 urn:lsid:nmbe.ch~ Actinop~ Actin~ insignis <NA>       Holmbe~  1881
    ##  9         9 urn:lsid:nmbe.ch~ Actinop~ Actin~ liodon   <NA>       Ausser~  1875
    ## 10        10 urn:lsid:nmbe.ch~ Actinop~ Actin~ longipa~ <NA>       C. L. ~  1842
    ## # ... with 49,775 more rows, and 2 more variables: parentheses <dbl>,
    ## #   distribution <chr>
…
