…
``` r
# data
computer <- readr::read_csv('https://raw.githubusercontent.com/rfordatascience/tidytuesday/master/data/2021/2021-08-17/computer.csv')
```

# NCruickshank Tweet

``` r
computer
```

    ## # A tibble: 2,214 x 14
    ##     name char           line  direction type  pri_type domain sub_domain nv_resp
    ##    <dbl> <chr>          <chr> <chr>     <chr> <chr>    <chr>  <chr>      <lgl>  
    ##  1   102 Tasha          Batt~ The door~ Stat~ Stateme~ IoT    Turbolift  TRUE   
    ##  2   102 Beverly        Show~ The scre~ Comm~ Command  InfoS~ <NA>       TRUE   
    ##  3   102 Beverly        Yes ~ The scre~ Stat~ Stateme~ IoT    <NA>       TRUE   
    ##  4   102 Picard         And ~ MAIN VIE~ Wake~ Question InfoS~ <NA>       FALSE  
    ##  5   102 Picard         And ~ MAIN VIE~ Ques~ Question InfoS~ <NA>       FALSE  
    ##  6   102 Picard         And ~ MAIN VIE~ Conv~ Question InfoS~ <NA>       FALSE  
    ##  7   102 Young Ensign   You ~ At the t~ Comm~ Command  InfoS~ Locate     FALSE  
    ##  8   102 Computer Voice Lieu~ <NA>      Resp~ Response InfoS~ Locate     FALSE  
    ##  9   102 Computer Voice This~ <NA>      Info  Alert    InfoS~ <NA>       FALSE  
    ## 10   102 Computer Voice This~ <NA>      Alert Alert    InfoS~ <NA>       FALSE  
    ## # ... with 2,204 more rows, and 5 more variables: interaction <chr>,
    ## #   char_type <chr>, is_fed <lgl>, error <lgl>, value_id <dbl>
…
