…
    ## # A tibble: 2 x 2
    ##   vars         n
    ##   <chr>    <int>
    ## 1 immunity  2488
    ## 2 reward    2535

## Castaways

``` r
castaways
```

    ## # A tibble: 744 x 18
    ##    season_name season full_name castaway   age city  state personality_type
    ##    <chr>        <dbl> <chr>     <chr>    <dbl> <chr> <chr> <chr>           
    ##  1 Survivor: ~     40 Natalie ~ Natalie     33 Edge~ New ~ ESTP            
    ##  2 Survivor: ~     40 Amber Ma~ Amber       40 Pens~ Flor~ ISFP            
    ##  3 Survivor: ~     40 Danni Bo~ Danni       43 Shaw~ Kans~ ENFJ            
    ##  4 Survivor: ~     40 Ethan Zo~ Ethan       45 Hill~ New ~ ISFP            
    ##  5 Survivor: ~     40 Tyson Ap~ Tyson       39 Mesa  Ariz~ ESTP            
    ##  6 Survivor: ~     40 Rob Mari~ Rob         43 Pens~ Flor~ ESTJ            
    ##  7 Survivor: ~     40 Parvati ~ Parvati     36 Los ~ Cali~ ENFJ            
    ##  8 Survivor: ~     40 Sandra D~ Sandra      44 Rive~ Flor~ ESTP            
    ##  9 Survivor: ~     40 Yul Kwon  Yul         44 Los ~ Cali~ INTJ            
    ## 10 Survivor: ~     40 Wendell ~ Wendell     35 Phil~ Penn~ INFJ            
    ## # ... with 734 more rows, and 10 more variables: day <dbl>, order <dbl>,
    ## #   result <chr>, jury_status <chr>, original_tribe <chr>, swapped_tribe <chr>,
    ## #   swapped_tribe2 <chr>, merged_tribe <chr>, total_votes_received <dbl>,
    ## #   immunity_idols_won <dbl>
…
### Where did all the castaways come from?

Plot chloropleth map per capita.

## Viewers

``` r
viewers
```

    ## # A tibble: 596 x 9
    ##    season_name season episode_number_~ episode title episode_date viewers
    ##    <chr>        <dbl>            <dbl>   <dbl> <chr> <date>         <dbl>
    ##  1 Survivor: ~     40              583       1 Grea~ 2020-02-12      6.68
    ##  2 Survivor: ~     40              584       2 It's~ 2020-02-19      7.16
    ##  3 Survivor: ~     40              585       3 Out ~ 2020-02-26      7.14
    ##  4 Survivor: ~     40              586       4 I Li~ 2020-03-04      7.08
    ##  5 Survivor: ~     40              587       5 The ~ 2020-03-11      6.91
    ##  6 Survivor: ~     40              588       6 Quic~ 2020-03-18      7.83
    ##  7 Survivor: ~     40              589       7 We'r~ 2020-03-25      8.18
    ##  8 Survivor: ~     40              590       8 This~ 2020-04-01      8.23
    ##  9 Survivor: ~     40              591       9 War ~ 2020-04-08      7.85
    ## 10 Survivor: ~     40              592      10 The ~ 2020-04-15      8.14
    ## # ... with 586 more rows, and 2 more variables: rating_18_49 <dbl>,
    ## #   share_18_49 <dbl>
…
