Spice Girls
…
## Rows: 1885 Columns: 9

## -- Column specification --------------------------------------------------------
## Delimiter: ","
## chr (6): artist_name, album_name, song_name, section_name, line, section_artist
## dbl (3): track_number, song_id, line_number

## 
## i Use `spec()` to retrieve the full column specification for this data.
## i Specify the column types or set `show_col_types = FALSE` to quiet this message.

studio_album_tracks

## # A tibble: 31 x 25
##    artist_name artist_id album_id album_release_d~ album_release_y~ danceability
##    <chr>       <chr>     <chr>    <date>                      <dbl>        <dbl>
##  1 Spice Girls 0uq5Pttq~ 4jbWZmf~ 2000-01-01                   2000        0.769
##  2 Spice Girls 0uq5Pttq~ 4jbWZmf~ 2000-01-01                   2000        0.829
##  3 Spice Girls 0uq5Pttq~ 4jbWZmf~ 2000-01-01                   2000        0.614
##  4 Spice Girls 0uq5Pttq~ 4jbWZmf~ 2000-01-01                   2000        0.736
##  5 Spice Girls 0uq5Pttq~ 4jbWZmf~ 2000-01-01                   2000        0.86 
##  6 Spice Girls 0uq5Pttq~ 4jbWZmf~ 2000-01-01                   2000        0.798
##  7 Spice Girls 0uq5Pttq~ 4jbWZmf~ 2000-01-01                   2000        0.671
##  8 Spice Girls 0uq5Pttq~ 4jbWZmf~ 2000-01-01                   2000        0.571
##  9 Spice Girls 0uq5Pttq~ 4jbWZmf~ 2000-01-01                   2000        0.709
## 10 Spice Girls 0uq5Pttq~ 4jbWZmf~ 2000-01-01                   2000        0.536
## # ... with 21 more rows, and 19 more variables: energy <dbl>, key <dbl>,
## #   loudness <dbl>, mode <dbl>, speechiness <dbl>, acousticness <dbl>,
## #   instrumentalness <dbl>, liveness <dbl>, valence <dbl>, tempo <dbl>,
## #   track_id <chr>, time_signature <dbl>, duration_ms <dbl>, track_name <chr>,
## #   track_number <dbl>, album_name <chr>, key_name <chr>, mode_name <chr>,
## #   key_mode <chr>

lyrics

## # A tibble: 1,885 x 9
##    artist_name album_name track_number song_id song_name line_number
##    <chr>       <chr>             <dbl>   <dbl> <chr>           <dbl>
##  1 Spice Girls Spice                 1   89740 Wannabe             1
##  2 Spice Girls Spice                 1   89740 Wannabe             2
##  3 Spice Girls Spice                 1   89740 Wannabe             3
##  4 Spice Girls Spice                 1   89740 Wannabe             4
##  5 Spice Girls Spice                 1   89740 Wannabe             5
##  6 Spice Girls Spice                 1   89740 Wannabe             6
##  7 Spice Girls Spice                 1   89740 Wannabe             7
##  8 Spice Girls Spice                 1   89740 Wannabe             8
##  9 Spice Girls Spice                 1   89740 Wannabe             9
## 10 Spice Girls Spice                 1   89740 Wannabe            10
## # ... with 1,875 more rows, and 3 more variables: section_name <chr>,
## #   line <chr>, section_artist <chr>
…
