…
# create df to tidy up chapter names
avatar_info <- avatar %>%
  mutate(
    chap = str_to_lower(chapter),
    chap = str_remove_all(chap, remove_regex),
    chap = str_trim(chap),
    imdb_rating
  )

avatar_info
```

    ## # A tibble: 13,385 x 12
    ##       id book  book_num chapter chapter_num character full_text character_words
    ##    <dbl> <chr>    <dbl> <chr>         <dbl> <chr>     <chr>     <chr>          
    ##  1     1 Water        1 The Bo~           1 Katara    "Water. ~ Water. Earth. ~
    ##  2     2 Water        1 The Bo~           1 Scene De~ "As the ~ <NA>           
    ##  3     3 Water        1 The Bo~           1 Sokka     "It's no~ It's not getti~
    ##  4     4 Water        1 The Bo~           1 Scene De~ "The sho~ <NA>           
    ##  5     5 Water        1 The Bo~           1 Katara    "[Happil~ Sokka, look!   
    ##  6     6 Water        1 The Bo~           1 Sokka     "[Close-~ Sshh! Katara, ~
    ##  7     7 Water        1 The Bo~           1 Scene De~ "Behind ~ <NA>           
    ##  8     8 Water        1 The Bo~           1 Katara    "[Strugg~ But, Sokka! I ~
    ##  9     9 Water        1 The Bo~           1 Scene De~ "The bub~ <NA>           
    ## 10    10 Water        1 The Bo~           1 Katara    "[Exclai~ Hey!           
    ## # ... with 13,375 more rows, and 4 more variables: writer <chr>,
    ## #   director <chr>, imdb_rating <dbl>, chap <chr>
…
characters
```

    ## # A tibble: 59 x 18
    ##    chap   Aang Azula  Iroh   Mai  Suki  Toph `Ty Lee`  Zuko Katara  Roku Sokka
    ##    <chr> <int> <int> <int> <int> <int> <int>    <int> <int>  <int> <int> <int>
    ##  1 appa~     4     5     1     2     7     3        2     1      0     0     0
    ##  2 avat~    17     3     4     0     0     3        0    10      4    45     3
    ##  3 avat~    30     0     8     0     0     0        0     6     30     0    36
    ##  4 avat~    30     0     3     0     0     0        0    12     35     0    33
    ##  5 avat~    35    17    12     0     0     0        0    13     20     5    16
    ##  6 awak~    35    10     0     2     0    10        0    11     30     2    12
    ##  7 bato~    38     0     8     0     0     0        0    19     32     0    43
    ##  8 beach     4    35     0    26     0     4       31    40      2     0     1
    ##  9 bitt~    44     0    19     0     0    26        0    17     14     0    19
    ## 10 blin~    37     0     0     0     0    30        0     0     22     0    24
    ## # ... with 49 more rows, and 6 more variables: Hakoda <int>, Ozai <int>,
    ## #   Yue <int>, Zhao <int>, Jet <int>, Bumi <int>
…
creators
```

    ## # A tibble: 59 x 17
    ##    chap  `Dave Filoni` `Bryan Konietzk~ `Aaron Ehasz` `Peter Goldfing~
    ##    <chr>         <dbl>            <dbl>         <dbl>            <dbl>
    ##  1 boy ~             1                1             1                1
    ##  2 avat~             1                1             1                1
    ##  3 sout~             0                0             0                0
    ##  4 warr~             0                0             0                0
    ##  5 king~             0                0             0                0
    ##  6 impr~             1                0             0                0
    ##  7 wint~             0                0             1                0
    ##  8 wint~             0                0             0                0
    ##  9 wate~             0                0             0                0
    ## 10 jet               1                0             0                0
    ## # ... with 49 more rows, and 12 more variables: `Josh Stolberg` <dbl>, `Michael
    ## #   Dante DiMartino` <dbl>, `Lauren MacMullan` <dbl>, `Giancarlo Volpe` <dbl>,
    ## #   `Anthony Lioi` <dbl>, `John O'Bryan` <dbl>, `Tim Hedrick` <dbl>, `Elizabeth
    ## #   Welch Ehasz` <dbl>, `Joshua Hamilton` <dbl>, `Ethan Spaulding` <dbl>,
    ## #   `Katie Mattila` <dbl>, `Joaquim Dos Santos` <dbl>
…
    ## Joining, by = "chap"
    ## Joining, by = "chap"
    ## Joining, by = "chap"

``` r
df$imdb_rating[is.na(df$imdb_rating)] <- 9.4

df
```

    ## # A tibble: 65 x 38
    ##    book  book_num chap  chapter_num  aang azula  iroh   mai  suki  toph ty_lee
    ##    <chr>    <dbl> <chr>       <dbl> <int> <int> <int> <int> <int> <int>  <int>
    ##  1 Water        1 boy ~           1    47     0     7     0     0     0      0
    ##  2 Water        1 avat~           2    30     0     3     0     0     0      0
    ##  3 Water        1 sout~           3    52     0    13     0     0     0      0
    ##  4 Water        1 warr~           4    59     0     5     0    25     0      0
    ##  5 Water        1 king~           5    56     0     0     0     0     0      0
    ##  6 Water        1 impr~           6    23     0     0     0     0     0      0
    ##  7 Water        1 wint~           7    33     0    13     0     0     0      0
    ##  8 Water        1 wint~           8    44     0     8     0     0     0      0
    ##  9 Water        1 wate~           9    45     0    12     0     0     0      0
    ## 10 Water        1 jet            10    36     0     0     0     0     0      0
    ## # ... with 55 more rows, and 27 more variables: zuko <int>, katara <int>,
    ## #   roku <int>, sokka <int>, hakoda <int>, ozai <int>, yue <int>, zhao <int>,
    ## #   jet <int>, bumi <int>, dave_filoni <dbl>, bryan_konietzko <dbl>,
    ## #   aaron_ehasz <dbl>, peter_goldfinger <dbl>, josh_stolberg <dbl>,
    ## #   michael_dante_di_martino <dbl>, lauren_mac_mullan <dbl>,
    ## #   giancarlo_volpe <dbl>, anthony_lioi <dbl>, john_o_bryan <dbl>,
    ## #   tim_hedrick <dbl>, elizabeth_welch_ehasz <dbl>, joshua_hamilton <dbl>,
    ## #   ethan_spaulding <dbl>, katie_mattila <dbl>, joaquim_dos_santos <dbl>,
    ## #   imdb_rating <dbl>
…
wf <- workflow() %>%
  add_recipe(df_rec)

lasso_fit <- wf %>%
  add_model(lasso) %>%
  fit(data = df_train)

lasso_fit %>%
  pull_workflow_fit() %>%
  tidy()
```

    ## # A tibble: 2,546 x 5
    ##    term         step estimate lambda dev.ratio
    ##    <chr>       <dbl>    <dbl>  <dbl>     <dbl>
    ##  1 (Intercept)     1   8.75    0.280    0     
    ##  2 (Intercept)     2   8.75    0.256    0.0472
    ##  3 katara          2  -0.0252  0.256    0.0472
    ##  4 (Intercept)     3   8.75    0.233    0.0863
    ##  5 katara          3  -0.0481  0.233    0.0863
    ##  6 (Intercept)     4   8.75    0.212    0.119 
    ##  7 katara          4  -0.0690  0.212    0.119 
    ##  8 (Intercept)     5   8.75    0.193    0.146 
    ##  9 katara          5  -0.0880  0.193    0.146 
    ## 10 (Intercept)     6   8.75    0.176    0.184 
    ## # ... with 2,536 more rows
…
Here are the results

``` r
lasso_grid %>%
  collect_metrics()
```

    ## # A tibble: 100 x 6
    ##     penalty .metric .estimator   mean     n std_err
    ##       <dbl> <chr>   <chr>       <dbl> <int>   <dbl>
    ##  1 1.00e-10 rmse    standard   3.82      25  1.41  
    ##  2 1.00e-10 rsq     standard   0.0893    25  0.0177
    ##  3 1.60e-10 rmse    standard   3.82      25  1.41  
    ##  4 1.60e-10 rsq     standard   0.0893    25  0.0177
    ##  5 2.56e-10 rmse    standard   3.82      25  1.41  
    ##  6 2.56e-10 rsq     standard   0.0893    25  0.0177
    ##  7 4.09e-10 rmse    standard   3.82      25  1.41  
    ##  8 4.09e-10 rsq     standard   0.0893    25  0.0177
    ##  9 6.55e-10 rmse    standard   3.82      25  1.41  
    ## 10 6.55e-10 rsq     standard   0.0893    25  0.0177
    ## # ... with 90 more rows
…
