…
    ## -- Column specification --------------------------------------------------------
    ## Delimiter: ","
    ## chr  (4): product_name, size, trans_fat_g, fiber_g
    ## dbl (11): milk, whip, serv_size_m_l, calories, total_fat_g, saturated_fat_g,...

    ## 
    ## i Use `spec()` to retrieve the full column specification for this data.
    ## i Specify the column types or set `show_col_types = FALSE` to quiet this message.

``` r
starbucks
```

    ## # A tibble: 1,147 x 15
    ##    product_name             size   milk  whip serv_size_m_l calories total_fat_g
    ##    <chr>                    <chr> <dbl> <dbl>         <dbl>    <dbl>       <dbl>
    ##  1 brewed coffee - dark ro~ short     0     0           236        3         0.1
    ##  2 brewed coffee - dark ro~ tall      0     0           354        4         0.1
    ##  3 brewed coffee - dark ro~ gran~     0     0           473        5         0.1
    ##  4 brewed coffee - dark ro~ venti     0     0           591        5         0.1
    ##  5 brewed coffee - decaf p~ short     0     0           236        3         0.1
    ##  6 brewed coffee - decaf p~ tall      0     0           354        4         0.1
    ##  7 brewed coffee - decaf p~ gran~     0     0           473        5         0.1
    ##  8 brewed coffee - decaf p~ venti     0     0           591        5         0.1
    ##  9 brewed coffee - medium ~ short     0     0           236        3         0.1
    ## 10 brewed coffee - medium ~ tall      0     0           354        4         0.1
    ## # ... with 1,137 more rows, and 8 more variables: saturated_fat_g <dbl>,
    ## #   trans_fat_g <chr>, cholesterol_mg <dbl>, sodium_mg <dbl>,
    ## #   total_carbs_g <dbl>, fiber_g <chr>, sugar_g <dbl>, caffeine_mg <dbl>
…
