…
WHy have cisco and chub gone down in recent years?

## Stocked Data

``` r
stocked
```

    ## # A tibble: 56,232 x 31
    ##      SID  YEAR MONTH   DAY LAKE  STATE_PROV SITE  ST_SITE LATITUDE LONGITUDE
    ##    <dbl> <dbl> <dbl> <dbl> <chr> <chr>      <chr> <chr>   <lgl>    <lgl>    
    ##  1     1  1950    NA    NA MI    ON         PIE ~ PIE     NA       NA       
    ##  2     2  1952     4    29 SU    WI         APOS~ APOSTLE NA       NA       
    ##  3     3  1952     9    23 SU    WI         APOS~ APOSTLE NA       NA       
    ##  4     4  1952    NA    NA SU    MI         LAUG~ LAUGHI~ NA       NA       
    ##  5     5  1953     5    27 SU    WI         APOS~ APOSTLE NA       NA       
    ##  6     6  1953    10    10 SU    WI         APOS~ APOSTLE NA       NA       
    ##  7     7  1953    NA    NA SU    MI         LAUG~ LAUGHI~ NA       NA       
    ##  8     8  1953    NA    NA SU    MI         MARQ~ MARQUE~ NA       NA       
    ##  9     9  1953    NA    NA SU    ON         PIE ~ PIE     NA       NA       
    ## 10    10  1954     6     8 SU    WI         APOS~ APOSTLE NA       NA       
    ## # ... with 56,222 more rows, and 21 more variables: GRID <dbl>,
    ## #   STAT_DIST <chr>, LS_MGMT <chr>, SPECIES <chr>, STRAIN <chr>,
    ## #   NO_STOCKED <dbl>, YEAR_CLASS <dbl>, STAGE <chr>, AGEMONTH <dbl>,
    ## #   MARK <chr>, MARK_EFF <dbl>, TAG_NO <lgl>, TAG_RET <dbl>, LENGTH <dbl>,
    ## #   WEIGHT <dbl>, CONDITION <dbl>, LOT_CODE <chr>, STOCK_METH <chr>,
    ## #   AGENCY <chr>, VALIDATION <dbl>, NOTES <chr>
